{
  "5": {
    "count": 5,
    "hops": 20,
    "av_hopcount": 1.3
  },
  "18": {
    "count": 5,
    "hops": 20,
    "av_hopcount": 1.4
  },
  "24": {
    "count": 3,
    "hops": 6,
    "av_hopcount": 1.3333333333333333
  },
  "33": {
    "count": 2,
    "hops": 2,
    "av_hopcount": 1.0
  },
  "35": {
    "count": 59,
    "hops": 3422,
    "av_hopcount": 2.4704850964348335
  },
  "50": {
    "count": 2,
    "hops": 2,
    "av_hopcount": 1.0
  },
  "76": {
    "count": 66,
    "hops": 4290,
    "av_hopcount": 2.952913752913753
  },
  "82": {
    "count": 2,
    "hops": 2,
    "av_hopcount": 1.0
  },
  "85": {
    "count": 2,
    "hops": 2,
    "av_hopcount": 1.0
  },
  "96": {
    "count": 2,
    "hops": 2,
    "av_hopcount": 1.0
  },
  "105": {
    "count": 49,
    "hops": 2352,
    "av_hopcount": 1.157312925170068
  },
  "110": {
    "count": 4,
    "hops": 12,
    "av_hopcount": 1.3333333333333333
  },
  "117": {
    "count": 44,
    "hops": 1892,
    "av_hopcount": 1.3150105708245243
  },
  "127": {
    "count": 27,
    "hops": 702,
    "av_hopcount": 1.8347578347578348
  },
  "132": {
    "count": 15,
    "hops": 210,
    "av_hopcount": 1.819047619047619
  },
  "135": {
    "count": 3,
    "hops": 6,
    "av_hopcount": 1.3333333333333333
  },
  "175": {
    "count": 2,
    "hops": 2,
    "av_hopcount": 1.0
  },
  "176": {
    "count": 34,
    "hops": 1122,
    "av_hopcount": 1.7094474153297683
  },
  "190": {
    "count": 2,
    "hops": 2,
    "av_hopcount": 1.0
  },
  "201": {
    "count": 2,
    "hops": 2,
    "av_hopcount": 1.0
  },
  "204": {
    "count": 3,
    "hops": 6,
    "av_hopcount": 1.0
  },
  "209": {
    "count": 2,
    "hops": 2,
    "av_hopcount": 1.0
  },
  "227": {
    "count": 6,
    "hops": 30,
    "av_hopcount": 1.6666666666666667
  },
  "235": {
    "count": 2,
    "hops": 2,
    "av_hopcount": 1.0
  },
  "251": {
    "count": 4,
    "hops": 12,
    "av_hopcount": 1.0
  },
  "276": {
    "count": 2,
    "hops": 2,
    "av_hopcount": 1.0
  },
  "287": {
    "count": 2,
    "hops": 2,
    "av_hopcount": 1.0
  },
  "288": {
    "count": 30,
    "hops": 870,
    "av_hopcount": 2.296551724137931
  },
  "298": {
    "count": 3,
    "hops": 6,
    "av_hopcount": 1.3333333333333333
  },
  "303": {
    "count": 2,
    "hops": 2,
    "av_hopcount": 1.0
  },
  "307": {
    "count": 2,
    "hops": 2,
    "av_hopcount": 1.0
  },
  "316": {
    "count": 26,
    "hops": 650,
    "av_hopcount": 2.596923076923077
  },
  "319": {
    "count": 12,
    "hops": 132,
    "av_hopcount": 1.6363636363636365
  },
  "323": {
    "count": 2,
    "hops": 2,
    "av_hopcount": 1.0
  },
  "329": {
    "count": 4,
    "hops": 12,
    "av_hopcount": 1.5
  },
  "333": {
    "count": 2,
    "hops": 2,
    "av_hopcount": 1.0
  },
  "353": {
    "count": 2,
    "hops": 2,
    "av_hopcount": 1.0
  },
  "362": {
    "count": 9,
    "hops": 72,
    "av_hopcount": 1.0
  },
  "365": {
    "count": 2,
    "hops": 2,
    "av_hopcount": 1.0
  },
  "374": {
    "count": 2,
    "hops": 2,
    "av_hopcount": 1.0
  },
  "376": {
    "count": 2,
    "hops": 2,
    "av_hopcount": 1.0
  },
  "378": {
    "count": 2,
    "hops": 2,
    "av_hopcount": 1.0
  },
  "382": {
    "count": 2,
    "hops": 2,
    "av_hopcount": 1.0
  },
  "384": {
    "count": 2,
    "hops": 2,
    "av_hopcount": 1.0
  },
  "391": {
    "count": 2,
    "hops": 2,
    "av_hopcount": 1.0
  },
  "395": {
    "count": 2,
    "hops": 2,
    "av_hopcount": 1.0
  },
  "402": {
    "count": 3,
    "hops": 6,
    "av_hopcount": 1.0
  },
  "407": {
    "count": 2,
    "hops": 2,
    "av_hopcount": 1.0
  },
  "416": {
    "count": 2,
    "hops": 2,
    "av_hopcount": 1.0
  },
  "419": {
    "count": 2,
    "hops": 2,
    "av_hopcount": 1.0
  },
  "452": {
    "count": 4,
    "hops": 12,
    "av_hopcount": 1.0
  },
  "456": {
    "count": 2,
    "hops": 2,
    "av_hopcount": 1.0
  },
  "459": {
    "count": 3,
    "hops": 6,
    "av_hopcount": 1.0
  },
  "464": {
    "count": 2,
    "hops": 2,
    "av_hopcount": 1.0
  },
  "467": {
    "count": 8,
    "hops": 56,
    "av_hopcount": 1.0
  },
  "481": {
    "count": 2,
    "hops": 2,
    "av_hopcount": 1.0
  },
  "483": {
    "count": 2,
    "hops": 2,
    "av_hopcount": 1.0
  },
  "490": {
    "count": 2,
    "hops": 2,
    "av_hopcount": 1.0
  },
  "494": {
    "count": 3,
    "hops": 6,
    "av_hopcount": 1.0
  },
  "497": {
    "count": 3,
    "hops": 6,
    "av_hopcount": 1.0
  },
  "508": {
    "count": 6,
    "hops": 30,
    "av_hopcount": 1.6666666666666667
  },
  "511": {
    "count": 3,
    "hops": 6,
    "av_hopcount": 1.0
  },
  "516": {
    "count": 12,
    "hops": 132,
    "av_hopcount": 1.606060606060606
  },
  "530": {
    "count": 2,
    "hops": 2,
    "av_hopcount": 1.0
  },
  "533": {
    "count": 4,
    "hops": 12,
    "av_hopcount": 1.0
  },
  "537": {
    "count": 2,
    "hops": 2,
    "av_hopcount": 1.0
  },
  "547": {
    "count": 4,
    "hops": 12,
    "av_hopcount": 1.1666666666666667
  },
  "551": {
    "count": 2,
    "hops": 2,
    "av_hopcount": 1.0
  },
  "556": {
    "count": 4,
    "hops": 12,
    "av_hopcount": 1.0
  },
  "569": {
    "count": 2,
    "hops": 2,
    "av_hopcount": 1.0
  },
  "573": {
    "count": 3,
    "hops": 6,
    "av_hopcount": 1.0
  },
  "578": {
    "count": 2,
    "hops": 2,
    "av_hopcount": 1.0
  },
  "579": {
    "count": 5,
    "hops": 20,
    "av_hopcount": 1.3
  },
  "581": {
    "count": 2,
    "hops": 2,
    "av_hopcount": 1.0
  },
  "592": {
    "count": 3,
    "hops": 6,
    "av_hopcount": 1.0
  },
  "596": {
    "count": 12,
    "hops": 132,
    "av_hopcount": 1.6363636363636365
  },
  "602": {
    "count": 2,
    "hops": 2,
    "av_hopcount": 1.0
  },
  "605": {
    "count": 2,
    "hops": 2,
    "av_hopcount": 1.0
  },
  "635": {
    "count": 2,
    "hops": 2,
    "av_hopcount": 1.0
  },
  "639": {
    "count": 3,
    "hops": 6,
    "av_hopcount": 1.0
  },
  "641": {
    "count": 2,
    "hops": 2,
    "av_hopcount": 1.0
  },
  "645": {
    "count": 3,
    "hops": 6,
    "av_hopcount": 1.3333333333333333
  },
  "649": {
    "count": 2,
    "hops": 2,
    "av_hopcount": 1.0
  },
  "651": {
    "count": 2,
    "hops": 2,
    "av_hopcount": 1.0
  },
  "658": {
    "count": 2,
    "hops": 2,
    "av_hopcount": 1.0
  },
  "661": {
    "count": 2,
    "hops": 2,
    "av_hopcount": 1.0
  },
  "678": {
    "count": 4,
    "hops": 12,
    "av_hopcount": 1.3333333333333333
  },
  "683": {
    "count": 2,
    "hops": 2,
    "av_hopcount": 1.0
  },
  "688": {
    "count": 2,
    "hops": 2,
    "av_hopcount": 1.0
  },
  "694": {
    "count": 2,
    "hops": 2,
    "av_hopcount": 1.0
  },
  "705": {
    "count": 2,
    "hops": 2,
    "av_hopcount": 1.0
  },
  "706": {
    "count": 4,
    "hops": 12,
    "av_hopcount": 1.0
  },
  "714": {
    "count": 2,
    "hops": 2,
    "av_hopcount": 1.0
  },
  "717": {
    "count": 25,
    "hops": 600,
    "av_hopcount": 2.0933333333333333
  },
  "721": {
    "count": 2,
    "hops": 2,
    "av_hopcount": 1.0
  },
  "732": {
    "count": 3,
    "hops": 6,
    "av_hopcount": 1.0
  },
  "737": {
    "count": 3,
    "hops": 6,
    "av_hopcount": 1.0
  },
  "744": {
    "count": 2,
    "hops": 2,
    "av_hopcount": 1.0
  },
  "760": {
    "count": 2,
    "hops": 2,
    "av_hopcount": 1.0
  },
  "778": {
    "count": 8,
    "hops": 56,
    "av_hopcount": 1.6071428571428572
  },
  "782": {
    "count": 2,
    "hops": 2,
    "av_hopcount": 1.0
  },
  "812": {
    "count": 2,
    "hops": 2,
    "av_hopcount": 1.0
  }
}